<svg width="135" height="40" viewBox="0 0 135 40" fill="none" xmlns="http://www.w3.org/2000/svg">
<path d="M130.1 40.0004L4.80043 40.0004C4.16773 40.0089 3.53976 39.8905 2.95357 39.6523C2.36738 39.4141 1.83485 39.0608 1.38744 38.6134C0.940015 38.166 0.586767 37.6335 0.348545 37.0473C0.110322 36.4611 -0.00804732 35.8331 0.000424656 35.2004L0.000424656 4.80043C-0.00804732 4.16773 0.110322 3.53976 0.348545 2.95357C0.586767 2.36738 0.940015 1.83485 1.38744 1.38744C1.83485 0.940015 2.36738 0.586767 2.95357 0.348545C3.53976 0.110322 4.16773 -0.00804732 4.80043 0.000424656L130.2 0.000424656C131.473 0.000424656 132.694 0.506137 133.595 1.40631C134.495 2.30649 135 3.52739 135 4.80043V35.3004C134.957 36.5678 134.421 37.7682 133.505 38.646C132.59 39.5238 131.369 40.0098 130.1 40.0004Z" fill="#A6A6A6"/>
<path d="M130.1 39.0004L4.79988 39.0004C3.79206 39.0004 2.82551 38.6001 2.11287 37.8874C1.40023 37.1748 0.999878 36.2083 0.999878 35.2004L0.999878 4.80043C0.999878 3.7926 1.40023 2.82606 2.11287 2.11342C2.82551 1.40078 3.79206 1.00043 4.79988 1.00043L130.2 1.00043C131.208 1.00043 132.174 1.40078 132.887 2.11342C133.6 2.82606 134 3.7926 134 4.80043V35.3004C133.94 36.2968 133.504 37.2333 132.78 37.9202C132.056 38.6072 131.098 38.9933 130.1 39.0004Z" fill="black"/>
<path d="M119 30H126V23H119V30Z" stroke="#00ADF0" stroke-width="2" stroke-linejoin="round"/>
<path d="M116 25.5V23H106V33H116V28.5" stroke="#D42E2E" stroke-width="2" stroke-linejoin="round"/>
<path d="M110 21.5V14H123V27H120.5M110 24.5V27H117.5" stroke="#42A147" stroke-width="2" stroke-linejoin="round"/>
<path d="M108.5 19H103V7H116V19H111.5" stroke="#FCD936" stroke-width="2" stroke-linejoin="round"/>
<path d="M18.5 12C17.6716 12 17 12.6716 17 13.5C17 14.3284 17.6716 15 18.5 15C19.3284 15 20 14.3284 20 13.5C20 12.6716 19.3284 12 18.5 12Z" fill="white"/>
<path d="M49 12.5H46V25H59V22.5C59 18.9102 56.0899 16 52.5 16H51.5V19H52.5C54.2632 19 55.7219 20.3039 55.9646 22H49V12.5Z" fill="white"/>
<path d="M11 23.5C11 21.6758 12.3956 20.1775 14.1774 20.0147C14.8599 22.874 17.4317 25 20.5 25H23V17H20V21.9646C18.3039 21.722 17 20.2632 17 18.5V17H14.5C10.9101 17 8 19.9102 8 23.5V25H11V23.5Z" fill="white"/>
<path fill-rule="evenodd" clip-rule="evenodd" d="M28 17C25.7909 17 24 18.7909 24 21C24 23.2091 25.7909 25 28 25H29V28.5H32V25H40.9347V23.5C40.9347 19.9102 38.0246 17 34.4347 17H33.5V20H34.4347C35.8309 20 37.0362 20.8175 37.5979 22H32V21C32 18.7909 30.2091 17 28 17ZM29 21V22H28C27.4477 22 27 21.5523 27 21C27 20.4477 27.4477 20 28 20C28.5523 20 29 20.4477 29 21Z" fill="white"/>
<path d="M44.8974 28.5V17.5H41.8974V28.5H44.8974Z" fill="white"/>
<path d="M34 13.5C34 12.6716 34.6716 12 35.5 12C36.3284 12 37 12.6716 37 13.5C37 14.3284 36.3284 15 35.5 15C34.6716 15 34 14.3284 34 13.5Z" fill="white"/>
<path d="M47 27.5C47 26.6716 47.6716 26 48.5 26C49.3284 26 50 26.6716 50 27.5C50 28.3284 49.3284 29 48.5 29C47.6716 29 47 28.3284 47 27.5Z" fill="white"/>
<path d="M51 27.5C51 26.6716 51.6716 26 52.5 26C53.3284 26 54 26.6716 54 27.5C54 28.3284 53.3284 29 52.5 29C51.6716 29 51 28.3284 51 27.5Z" fill="white"/>
<path d="M56.5 26C55.6716 26 55 26.6716 55 27.5C55 28.3284 55.6716 29 56.5 29C57.3284 29 58 28.3284 58 27.5C58 26.6716 57.3284 26 56.5 26Z" fill="white"/>
<path d="M65.551 23.0531C65.551 23.3543 65.4989 23.6359 65.3947 23.8981C65.2959 24.1602 65.156 24.3888 64.975 24.584C64.7994 24.7792 64.5882 24.9326 64.3414 25.0442C64.1 25.1557 63.8394 25.2115 63.5596 25.2115H63.0411L63 24.2996H63.3456C63.5925 24.2996 63.8037 24.2634 63.9793 24.1909C64.1493 24.1239 64.2892 24.0319 64.399 23.9148C64.5087 23.7977 64.5882 23.6638 64.6376 23.5132C64.687 23.3627 64.7117 23.2093 64.7117 23.0531V20.7358H65.551V23.0531ZM65.5593 19.757H64.6294V18.9037H65.5593V19.757Z" fill="white"/>
<path d="M66.5072 18.0002H67.3465V23.187H66.5072V18.0002Z" fill="white"/>
<path d="M74.1068 22.2667C74.4744 22.2667 74.6582 22.0855 74.6582 21.723V20.7358H75.4976V21.723C75.4976 21.9182 75.5579 22.0576 75.6786 22.1413C75.8048 22.2249 75.9474 22.2667 76.1065 22.2667H76.2711C76.3424 22.2667 76.3891 22.3058 76.411 22.3839C76.4384 22.4564 76.4522 22.5651 76.4522 22.7101C76.4522 22.8719 76.4384 22.9918 76.411 23.0699C76.3891 23.1479 76.3424 23.187 76.2711 23.187H76.0736C75.8706 23.187 75.6814 23.1535 75.5058 23.0866C75.3357 23.0141 75.1876 22.8719 75.0614 22.6599C74.9298 22.8719 74.7816 23.0141 74.6171 23.0866C74.458 23.1535 74.2879 23.187 74.1068 23.187H71.3336C71.1087 23.187 70.9139 23.1535 70.7494 23.0866C70.5903 23.0141 70.4586 22.9193 70.3544 22.8022C70.2556 22.685 70.1815 22.5484 70.1322 22.3922C70.0883 22.2361 70.0663 22.0715 70.0663 21.8987V20.7107H70.9057V21.6811C70.9057 21.8652 70.9441 22.0102 71.0209 22.1162C71.1032 22.2166 71.2705 22.2667 71.5229 22.2667H74.1068ZM73.7941 20.0582H72.9383V19.2384H73.7941V20.0582ZM72.6174 20.0582H71.7615V19.2384H72.6174V20.0582Z" fill="white"/>
<path d="M77.6262 22.2667C77.6975 22.2667 77.7441 22.3058 77.766 22.3839C77.7935 22.4564 77.8072 22.5651 77.8072 22.7101C77.8072 22.8719 77.7935 22.9918 77.766 23.0699C77.7441 23.1479 77.6975 23.187 77.6262 23.187H76.2683C76.197 23.187 76.1504 23.1507 76.1285 23.0782C76.101 23.0001 76.0873 22.8886 76.0873 22.7436C76.0873 22.5819 76.101 22.4619 76.1285 22.3839C76.1504 22.3058 76.197 22.2667 76.2683 22.2667H77.6262Z" fill="white"/>
<path d="M78.3671 22.2667C78.4549 22.2667 78.5317 22.2695 78.5975 22.2751C78.6633 22.2751 78.7237 22.2779 78.7786 22.2835C78.8389 22.2891 78.8965 22.2974 78.9514 22.3086C79.0062 22.3197 79.0666 22.3337 79.1324 22.3504C78.9404 22.2667 78.7868 22.1803 78.6716 22.0911C78.5619 21.9963 78.4768 21.8959 78.4165 21.7899C78.3561 21.6839 78.315 21.5696 78.293 21.4469C78.2766 21.3186 78.2684 21.1792 78.2684 21.0286C78.2684 20.878 78.2958 20.7219 78.3506 20.5601C78.411 20.3984 78.4988 20.2534 78.614 20.1251C78.7292 19.9969 78.8718 19.8909 79.0419 19.8072C79.2174 19.7236 79.4177 19.6817 79.6426 19.6817C79.8566 19.6817 80.0486 19.7096 80.2187 19.7654C80.3942 19.8212 80.5451 19.9132 80.6713 20.0415C80.7974 20.1697 80.8934 20.3398 80.9593 20.5518C81.0306 20.7581 81.0663 21.0147 81.0663 21.3214V21.7481C81.0663 22.1998 80.9373 22.554 80.6795 22.8105C80.4271 23.0615 80.0266 23.187 79.478 23.187H77.6262C77.5548 23.187 77.5085 23.1507 77.4866 23.0782C77.4591 23.0001 77.4454 22.8886 77.4454 22.7436C77.4454 22.5819 77.4591 22.4619 77.4866 22.3839C77.5085 22.3058 77.5548 22.2667 77.6262 22.2667H78.3671ZM79.6097 20.602C79.4177 20.602 79.275 20.6661 79.1818 20.7944C79.0885 20.9171 79.0419 21.0481 79.0419 21.1876C79.0419 21.2657 79.0501 21.3409 79.0666 21.4134C79.0885 21.4804 79.1352 21.5501 79.2065 21.6226C79.2778 21.6951 79.3848 21.7732 79.5274 21.8568C79.67 21.9405 79.8675 22.0353 80.1199 22.1413C80.1638 22.0855 80.1967 22.0102 80.2187 21.9154C80.2461 21.815 80.2598 21.7174 80.2598 21.6226V21.4051C80.2598 21.1708 80.2132 20.9784 80.1199 20.8278C80.0266 20.6773 79.8566 20.602 79.6097 20.602ZM80.1034 18.9874H79.1736V18.1341H80.1034V18.9874Z" fill="white"/>
<path d="M83.1705 23.187C83.0169 23.187 82.8687 23.1675 82.7261 23.1284C82.5889 23.0838 82.4683 23.0113 82.364 22.9109C82.2598 22.8105 82.1775 22.6795 82.1171 22.5177C82.0568 22.3504 82.0266 22.1441 82.0266 21.8987V18.0002H82.866V21.6895C82.866 21.868 82.9044 22.0102 82.9812 22.1162C83.0635 22.2166 83.1842 22.2667 83.3433 22.2667H83.5326C83.6533 22.2667 83.7136 22.4145 83.7136 22.7101C83.7136 23.028 83.6533 23.187 83.5326 23.187H83.1705Z" fill="white"/>
<path d="M83.5326 23.187C83.4612 23.187 83.4152 23.1507 83.3932 23.0782C83.3658 23.0001 83.3521 22.8886 83.3521 22.7436C83.3521 22.5819 83.3658 22.4619 83.3932 22.3839C83.4152 22.3058 83.4612 22.2667 83.5326 22.2667H85.4258C85.7934 22.2667 85.9772 22.0855 85.9772 21.723V20.7358H86.8166V21.7815C86.8166 22.2444 86.6986 22.5958 86.4627 22.8356C86.2323 23.0699 85.9086 23.187 85.4917 23.187H83.5326ZM85.755 24.9438H84.9074V24.1239H85.755V24.9438ZM84.57 24.9438H83.7224V24.1239H84.57V24.9438Z" fill="white"/>
<path d="M86.5384 24.2996H86.6618C86.8922 24.2996 87.0897 24.2634 87.2543 24.1909C87.4189 24.1239 87.5506 24.0319 87.6493 23.9148C87.7536 23.7977 87.8304 23.6638 87.8797 23.5132C87.9291 23.3627 87.9538 23.2093 87.9538 23.0531V20.7358H88.7932V23.0531C88.7932 23.3543 88.7411 23.6359 88.6368 23.8981C88.5381 24.1602 88.3982 24.3888 88.2171 24.584C88.0416 24.7792 87.8304 24.9326 87.5835 25.0442C87.3421 25.1557 87.0815 25.2115 86.8017 25.2115H86.5878L86.5384 24.2996Z" fill="white"/>
<path d="M92.5721 21.0956C92.7202 21.2684 92.8272 21.4413 92.893 21.6142C92.9643 21.7815 93 21.9461 93 22.1078C93 22.2584 92.9726 22.4006 92.9177 22.5345C92.8683 22.6627 92.7915 22.7771 92.6873 22.8774C92.583 22.9723 92.4514 23.0475 92.2923 23.1033C92.1387 23.1591 91.9604 23.187 91.7574 23.187H89.5602L89.5191 22.2667H91.6175C91.8863 22.2667 92.0207 22.1636 92.0207 21.9572C92.0207 21.8568 91.9741 21.7537 91.8808 21.6477L90.4819 20.0247L91.132 19.4057L92.5721 21.0956Z" fill="white"/>
</svg>
