<svg width="136" height="40" viewBox="0 0 136 40" fill="none" xmlns="http://www.w3.org/2000/svg">
<path d="M130.101 40.0004L4.8014 40.0004C4.16871 40.0089 3.54073 39.8905 2.95454 39.6523C2.36835 39.4141 1.83583 39.0608 1.38841 38.6134C0.940992 38.166 0.587744 37.6335 0.349521 37.0473C0.111299 36.4611 -0.00707076 35.8331 0.00140122 35.2004L0.00140122 4.80043C-0.00707076 4.16773 0.111299 3.53976 0.349521 2.95357C0.587744 2.36738 0.940992 1.83485 1.38841 1.38744C1.83583 0.940015 2.36835 0.586767 2.95454 0.348545C3.54073 0.110322 4.16871 -0.00804732 4.8014 0.000424656L130.201 0.000424656C131.474 0.000424656 132.695 0.506137 133.596 1.40631C134.496 2.30649 135.001 3.52739 135.001 4.80043V35.3004C134.958 36.5678 134.422 37.7682 133.506 38.646C132.591 39.5238 131.369 40.0098 130.101 40.0004Z" fill="#A6A6A6"/>
<path d="M130.1 39.0004L4.80037 39.0004C3.79254 39.0004 2.826 38.6001 2.11336 37.8874C1.40072 37.1748 1.00037 36.2083 1.00037 35.2004L1.00037 4.80043C1.00037 3.7926 1.40072 2.82606 2.11336 2.11342C2.826 1.40078 3.79254 1.00043 4.80037 1.00043L130.2 1.00043C131.208 1.00043 132.175 1.40078 132.887 2.11342C133.6 2.82606 134 3.7926 134 4.80043V35.3004C133.941 36.2968 133.505 37.2333 132.781 37.9202C132.057 38.6072 131.098 38.9933 130.1 39.0004Z" fill="black"/>
<path d="M47.3705 10.2004C47.3932 10.5636 47.343 10.9277 47.2228 11.2712C47.1026 11.6147 46.9148 11.9307 46.6705 12.2004C46.3097 12.5642 45.8646 12.8332 45.3748 12.9835C44.8851 13.1338 44.3657 13.1608 43.863 13.0621C43.3603 12.9634 42.8897 12.742 42.4932 12.4176C42.0966 12.0932 41.7863 11.6759 41.5899 11.2027C41.3935 10.7295 41.317 10.2151 41.3673 9.70528C41.4176 9.19542 41.593 8.70588 41.878 8.28016C42.1631 7.85444 42.5489 7.50573 43.0011 7.26502C43.4534 7.02431 43.9581 6.89907 44.4705 6.90041C44.8885 6.90469 45.2996 7.00747 45.6705 7.20041C46.0273 7.34965 46.338 7.59127 46.5705 7.90041L46.0705 8.40041C45.8813 8.16188 45.6365 7.97335 45.3576 7.85131C45.0786 7.72928 44.774 7.67747 44.4705 7.70041C44.1681 7.6876 43.8668 7.744 43.5895 7.86531C43.3122 7.98662 43.0663 8.16964 42.8705 8.40041C42.6302 8.61026 42.4419 8.87304 42.3204 9.16803C42.1989 9.46303 42.1476 9.7822 42.1705 10.1004C42.1476 10.4186 42.1989 10.7378 42.3204 11.0328C42.4419 11.3278 42.6302 11.5906 42.8705 11.8004C43.3058 12.2132 43.8718 12.4608 44.4705 12.5004C44.7876 12.5138 45.1039 12.4582 45.3974 12.3373C45.691 12.2165 45.9547 12.0333 46.1705 11.8004C46.3304 11.6444 46.4571 11.4577 46.5431 11.2515C46.629 11.0453 46.6723 10.8238 46.6705 10.6004H44.4705V9.80041H47.3705V10.2004ZM51.9705 7.70041L49.2705 7.70041V9.60041L51.7705 9.60041V10.3004L49.2705 10.3004V12.2004H51.9705V13.0004H48.4705V7.00041H51.9705V7.70041ZM55.2705 13.0004H54.4705V7.70041H52.7705V7.00041H56.9705V7.70041H55.2705V13.0004ZM59.8705 13.0004V7.00041H60.6705V13.0004H59.8705ZM64.0705 13.0004H63.2705V7.70041H61.5705V7.00041H65.6705V7.70041H63.9705V13.0004H64.0705ZM73.5635 12.2004C73.0569 12.7123 72.3884 13.0327 71.672 13.1069C70.9557 13.181 70.2357 13.0045 69.635 12.6072C69.0342 12.21 68.5899 11.6167 68.3777 10.9284C68.1654 10.2402 68.1985 9.4997 68.4712 8.83311C68.7439 8.16653 69.2393 7.61517 69.8731 7.27302C70.5068 6.93087 71.2396 6.81913 71.9465 6.95684C72.6534 7.09454 73.2907 7.47318 73.7497 8.02818C74.2086 8.58319 74.4609 9.28021 74.4634 10.0004C74.4748 10.4096 74.4006 10.8166 74.2456 11.1954C74.0906 11.5742 73.8583 11.9165 73.5635 12.2004ZM69.7635 11.7004C70.1875 12.13 70.7602 12.3806 71.3635 12.4004C71.6658 12.4132 71.9672 12.3568 72.2444 12.2355C72.5217 12.1142 72.7676 11.9312 72.9634 11.7004C73.4119 11.2483 73.6635 10.6372 73.6635 10.0004C73.6863 9.6822 73.635 9.36303 73.5135 9.06803C73.392 8.77304 73.2037 8.51026 72.9634 8.30041C72.5394 7.87081 71.9667 7.62026 71.3635 7.60041C71.0611 7.5876 70.7598 7.644 70.4825 7.76531C70.2052 7.88662 69.9593 8.06964 69.7635 8.30041C69.315 8.75257 69.0634 9.3636 69.0635 10.0004C69.0406 10.3186 69.0919 10.6378 69.2134 10.9328C69.3349 11.2278 69.5232 11.4906 69.7635 11.7004ZM75.5635 13.0004V7.00041H76.4634L79.3634 11.7004V7.00041H80.1635V13.0004H79.3634L76.2635 8.10041V13.0004H75.5635Z" fill="white" stroke="white" stroke-width="0.2" stroke-miterlimit="10"/>
<path d="M68.0504 21.8004C67.4822 21.7874 66.9172 21.8898 66.3897 22.1013C65.8621 22.3128 65.3829 22.629 64.981 23.0309C64.579 23.4328 64.2628 23.9121 64.0513 24.4396C63.8398 24.9672 63.7374 25.5322 63.7504 26.1004C63.7459 26.6664 63.854 27.2276 64.0685 27.7513C64.283 28.275 64.5996 28.7509 64.9998 29.1511C65.4 29.5513 65.8758 29.8678 66.3996 30.0823C66.9233 30.2968 67.4845 30.4049 68.0504 30.4004C68.6187 30.4134 69.1836 30.3111 69.7112 30.0996C70.2388 29.8881 70.718 29.5718 71.1199 29.1699C71.5218 28.768 71.8381 28.2888 72.0496 27.7612C72.2611 27.2336 72.3634 26.6687 72.3504 26.1004C72.3719 25.53 72.2754 24.9612 72.0669 24.4298C71.8584 23.8984 71.5424 23.4158 71.1387 23.0121C70.7351 22.6085 70.2524 22.2925 69.721 22.084C69.1896 21.8755 68.6209 21.7789 68.0504 21.8004ZM68.0504 28.6004C67.3961 28.549 66.7852 28.2528 66.3396 27.7709C65.894 27.289 65.6466 26.6568 65.6466 26.0004C65.6466 25.3441 65.894 24.7118 66.3396 24.2299C66.7852 23.748 67.3961 23.4518 68.0504 23.4004C68.3822 23.4024 68.7101 23.4725 69.0136 23.6065C69.3172 23.7405 69.59 23.9354 69.815 24.1793C70.0401 24.4231 70.2126 24.7105 70.3219 25.0238C70.4312 25.3371 70.475 25.6695 70.4504 26.0004C70.4664 26.3294 70.4167 26.6582 70.3042 26.9678C70.1918 27.2774 70.0188 27.5614 69.7954 27.8035C69.572 28.0455 69.3027 28.2406 69.0031 28.3774C68.7035 28.5142 68.3796 28.59 68.0504 28.6004ZM58.7574 21.8004C58.1892 21.7874 57.6242 21.8898 57.0967 22.1013C56.5691 22.3128 56.0899 22.629 55.688 23.0309C55.286 23.4328 54.9698 23.9121 54.7583 24.4396C54.5468 24.9672 54.4444 25.5322 54.4574 26.1004C54.4529 26.6664 54.561 27.2276 54.7755 27.7513C54.99 28.275 55.3066 28.7509 55.7068 29.1511C56.107 29.5513 56.5828 29.8678 57.1066 30.0823C57.6303 30.2968 58.1915 30.4049 58.7574 30.4004C59.3257 30.4134 59.8906 30.3111 60.4182 30.0996C60.9458 29.8881 61.425 29.5718 61.8269 29.1699C62.2288 28.768 62.5451 28.2888 62.7566 27.7612C62.9681 27.2336 63.0704 26.6687 63.0574 26.1004C63.0789 25.53 62.9824 24.9612 62.7739 24.4298C62.5654 23.8984 62.2494 23.4158 61.8457 23.0121C61.4421 22.6085 60.9594 22.2925 60.428 22.084C59.8966 21.8755 59.3279 21.7789 58.7574 21.8004ZM58.7574 28.6004C58.1031 28.549 57.4922 28.2528 57.0466 27.7709C56.601 27.289 56.3536 26.6568 56.3536 26.0004C56.3536 25.3441 56.601 24.7118 57.0466 24.2299C57.4922 23.748 58.1031 23.4518 58.7574 23.4004C59.0892 23.4024 59.4171 23.4725 59.7206 23.6065C60.0242 23.7405 60.297 23.9354 60.522 24.1793C60.7471 24.4231 60.9196 24.7105 61.0289 25.0238C61.1382 25.3371 61.182 25.6695 61.1574 26.0004C61.1734 26.3294 61.1237 26.6582 61.0112 26.9678C60.8988 27.2774 60.7258 27.5614 60.5024 27.8035C60.279 28.0455 60.0097 28.2406 59.7101 28.3774C59.4105 28.5142 59.0866 28.59 58.7574 28.6004ZM47.6704 23.1004V24.9004H51.9704C51.9084 25.7585 51.5557 26.5698 50.9704 27.2004C50.5399 27.6332 50.0245 27.9721 49.4565 28.1959C48.8886 28.4196 48.2804 28.5233 47.6704 28.5004C47.0429 28.5069 46.4206 28.3865 45.8408 28.1463C45.2611 27.9061 44.7359 27.5511 44.2968 27.1027C43.8578 26.6543 43.5139 26.1218 43.286 25.5371C43.0581 24.9524 42.9507 24.3277 42.9704 23.7004C42.9592 23.0754 43.0723 22.4543 43.3033 21.8734C43.5342 21.2925 43.8784 20.7633 44.3158 20.3167C44.7531 19.87 45.2749 19.5148 45.8509 19.2716C46.4268 19.0285 47.0453 18.9023 47.6704 18.9004C48.8932 18.9114 50.0687 19.3745 50.9704 20.2004L52.2704 18.9004C51.0644 17.7337 49.4484 17.0873 47.7704 17.1004C46.014 17.1112 44.3312 17.8069 43.0799 19.0396C41.8286 20.2722 41.1077 21.9444 41.0704 23.7004C41.1077 25.4565 41.8286 27.1287 43.0799 28.3613C44.3312 29.5939 46.014 30.2896 47.7704 30.3004C48.6305 30.3486 49.4905 30.2029 50.2867 29.874C51.0829 29.5451 51.795 29.0415 52.3704 28.4004C53.4257 27.2593 53.999 25.7544 53.9704 24.2004C53.9915 23.8308 53.9578 23.4601 53.8704 23.1004H47.6704ZM93.0364 24.5004C92.7912 23.7322 92.3127 23.0594 91.6676 22.5756C91.0224 22.0917 90.2426 21.8208 89.4364 21.8004C88.8861 21.8028 88.3421 21.918 87.838 22.1389C87.334 22.3598 86.8805 22.6816 86.5057 23.0846C86.1308 23.4875 85.8425 23.963 85.6586 24.4817C85.4747 25.0004 85.3991 25.5513 85.4364 26.1004C85.4209 26.6609 85.5182 27.2188 85.7225 27.7409C85.9267 28.2631 86.2339 28.7389 86.6257 29.14C87.0175 29.5411 87.4859 29.8594 88.0031 30.0759C88.5203 30.2924 89.0757 30.4028 89.6364 30.4004C90.3332 30.4072 91.0202 30.2364 91.6326 29.9039C92.245 29.5715 92.7626 29.0884 93.1364 28.5004L91.7364 27.5004C91.5213 27.866 91.2143 28.1691 90.846 28.3796C90.4776 28.5901 90.0607 28.7007 89.6364 28.7004C89.1957 28.7232 88.7585 28.611 88.3832 28.3787C88.008 28.1464 87.7125 27.8051 87.5364 27.4004L93.2364 25.0004L93.0364 24.5004ZM87.2364 25.9004C87.2154 25.2818 87.4314 24.6785 87.8403 24.2138C88.2492 23.7491 88.8202 23.4582 89.4364 23.4004C89.76 23.3895 90.0803 23.4676 90.3625 23.6263C90.6446 23.785 90.8778 24.0182 91.0364 24.3004L87.2364 25.9004ZM82.5364 30.0004H84.4364V17.5004L82.5364 17.5004V30.0004ZM79.5364 22.7004C78.9319 22.0764 78.1051 21.7169 77.2364 21.7004C76.131 21.7519 75.088 22.2275 74.3244 23.0284C73.5607 23.8293 73.1352 24.8938 73.1364 26.0004C73.1285 26.5458 73.2284 27.0873 73.4304 27.5939C73.6324 28.1006 73.9325 28.5623 74.3135 28.9525C74.6945 29.3428 75.1489 29.654 75.6505 29.8681C76.1521 30.0823 76.6911 30.1952 77.2364 30.2004C77.6538 30.2039 78.0669 30.1162 78.4469 29.9434C78.8269 29.7707 79.1646 29.5171 79.4364 29.2004H79.5364V29.8004C79.597 30.3545 79.4517 30.9114 79.1282 31.3653C78.8047 31.8191 78.3257 32.1382 77.7822 32.2617C77.2387 32.3852 76.6688 32.3046 76.1809 32.0351C75.693 31.7657 75.3213 31.3262 75.1364 30.8004L73.5364 31.5004C73.8547 32.244 74.3847 32.8775 75.0604 33.322C75.7361 33.7666 76.5276 34.0025 77.3364 34.0004C79.5364 34.0004 81.3364 32.7004 81.3364 29.6004V22.0004L79.5364 22.0004V22.7004ZM77.3364 28.6004C76.6821 28.549 76.0712 28.2528 75.6256 27.7709C75.18 27.289 74.9326 26.6568 74.9326 26.0004C74.9326 25.3441 75.18 24.7118 75.6256 24.2299C76.0712 23.748 76.6821 23.4518 77.3364 23.4004C77.6604 23.4135 77.9785 23.4919 78.2714 23.6311C78.5643 23.7702 78.826 23.9671 79.0408 24.21C79.2557 24.4528 79.4192 24.7367 79.5216 25.0443C79.6239 25.352 79.663 25.6772 79.6364 26.0004C79.663 26.3236 79.6239 26.6488 79.5216 26.9565C79.4192 27.2642 79.2557 27.548 79.0408 27.7909C78.826 28.0337 78.5643 28.2306 78.2714 28.3698C77.9785 28.5089 77.6604 28.5873 77.3364 28.6004ZM101.718 17.5004H97.2184V30.0004H99.1184V25.3004H101.718C102.753 25.3004 103.745 24.8895 104.476 24.1581C105.208 23.4267 105.618 22.4348 105.618 21.4004C105.618 20.3661 105.208 19.3741 104.476 18.6427C103.745 17.9113 102.753 17.5004 101.718 17.5004ZM101.818 23.5004H99.1184V19.2004H101.818C102.385 19.1998 102.93 19.4178 103.34 19.809C103.75 20.2002 103.993 20.7344 104.018 21.3004C103.997 21.8769 103.758 22.424 103.35 22.8319C102.942 23.2399 102.395 23.4786 101.818 23.5004ZM113.309 21.7004C112.632 21.6458 111.953 21.7982 111.364 22.1374C110.775 22.4767 110.302 22.9869 110.009 23.6004L111.709 24.3004C111.875 24.002 112.124 23.7581 112.426 23.5983C112.728 23.4386 113.069 23.3698 113.409 23.4004C113.883 23.3645 114.353 23.5096 114.725 23.8066C115.096 24.1035 115.34 24.5301 115.409 25.0004V25.1004C114.828 24.7769 114.175 24.6049 113.509 24.6004C111.709 24.6004 109.909 25.6004 109.909 27.4004C109.926 27.7889 110.02 28.1702 110.185 28.5222C110.35 28.8741 110.584 29.1896 110.873 29.4502C111.161 29.7108 111.499 29.9114 111.866 30.0402C112.232 30.169 112.621 30.2235 113.009 30.2004C113.478 30.2163 113.943 30.1148 114.362 29.9053C114.781 29.6957 115.141 29.3846 115.409 29.0004H115.509V30.0004H117.309V25.2004C117.237 24.2083 116.776 23.2847 116.028 22.6296C115.279 21.9745 114.302 21.6407 113.309 21.7004ZM113.109 28.6004C112.509 28.6004 111.609 28.3004 111.609 27.5004C111.609 26.5004 112.709 26.2004 113.609 26.2004C114.199 26.2022 114.781 26.339 115.309 26.6004C115.233 27.138 114.972 27.6322 114.57 27.9974C114.169 28.3626 113.652 28.5759 113.109 28.6004ZM123.609 22.0004L121.509 27.4004H121.409L119.209 22.0004L117.209 22.0004L120.509 29.6004L118.609 33.8004H120.509L125.609 22.0004H123.609ZM106.821 30.0004H108.721V17.5004H106.821V30.0004Z" fill="white"/>
<g filter="url(#filter0_i)">
<path d="M26.9547 24.4572L11.251 33.5238C10.872 33.7426 10.4572 33.7748 10.088 33.6677L22.8549 20.1004L26.9547 24.4572Z" fill="url(#paint0_linear)"/>
<path d="M26.9547 15.7436L22.8549 20.1004L10.088 6.53317C10.4572 6.42599 10.872 6.45822 11.251 6.67703L26.9547 15.7436Z" fill="url(#paint1_linear)"/>
<path d="M9.00098 7.97607V32.2248C9.00098 32.9419 9.48309 33.492 10.088 33.6677L22.8549 20.1004L10.088 6.53317C9.48309 6.70883 9.00098 7.25894 9.00098 7.97607Z" fill="url(#paint2_linear)"/>
<path d="M26.9548 15.7253L22.855 20.0821L26.9548 24.4389L32.251 21.3812C33.251 20.8038 33.251 19.3604 32.251 18.7831L26.9548 15.7253Z" fill="url(#paint3_linear)"/>
</g>
<defs>
<filter id="filter0_i" x="9.00098" y="6.47382" width="24.0001" height="27.2532" filterUnits="userSpaceOnUse" color-interpolation-filters="sRGB">
<feFlood flood-opacity="0" result="BackgroundImageFix"/>
<feBlend mode="normal" in="SourceGraphic" in2="BackgroundImageFix" result="shape"/>
<feColorMatrix in="SourceAlpha" type="matrix" values="0 0 0 0 0 0 0 0 0 0 0 0 0 0 0 0 0 0 127 0" result="hardAlpha"/>
<feOffset dx="-0.25" dy="-0.25"/>
<feComposite in2="hardAlpha" operator="arithmetic" k2="-1" k3="1"/>
<feColorMatrix type="matrix" values="0 0 0 0 0 0 0 0 0 0 0 0 0 0 0 0 0 0 0.2 0"/>
<feBlend mode="normal" in2="shape" result="effect1_innerShadow"/>
</filter>
<linearGradient id="paint0_linear" x1="24.6609" y1="19.787" x2="7.42056" y2="-7.86226" gradientUnits="userSpaceOnUse">
<stop stop-color="#FF3A44"/>
<stop offset="1" stop-color="#C31162"/>
</linearGradient>
<linearGradient id="paint1_linear" x1="6.9508" y1="43.2793" x2="14.6486" y2="30.888" gradientUnits="userSpaceOnUse">
<stop stop-color="#32A071"/>
<stop offset="0.068" stop-color="#2DA771"/>
<stop offset="0.476" stop-color="#15CF74"/>
<stop offset="0.801" stop-color="#06E775"/>
<stop offset="1" stop-color="#00F076"/>
</linearGradient>
<linearGradient id="paint2_linear" x1="21.5804" y1="34.536" x2="0.348498" y2="28.8933" gradientUnits="userSpaceOnUse">
<stop stop-color="#00A0FF"/>
<stop offset="0.007" stop-color="#00A1FF"/>
<stop offset="0.26" stop-color="#00BEFF"/>
<stop offset="0.512" stop-color="#00D2FF"/>
<stop offset="0.76" stop-color="#00DFFF"/>
<stop offset="1" stop-color="#00E3FF"/>
</linearGradient>
<linearGradient id="paint3_linear" x1="33.7823" y1="22.0775" x2="9.59408" y2="22.0775" gradientUnits="userSpaceOnUse">
<stop stop-color="#FFE000"/>
<stop offset="0.409" stop-color="#FFBD00"/>
<stop offset="0.775" stop-color="#FFA500"/>
<stop offset="1" stop-color="#FF9C00"/>
</linearGradient>
</defs>
</svg>
