<svg width="24" height="24" viewBox="0 0 24 24" fill="none" xmlns="http://www.w3.org/2000/svg">
<path fill-rule="evenodd" clip-rule="evenodd" d="M10.6775 2.56549C9.42286 1.62691 7.64489 1.88314 6.70631 3.13779L2.33417 8.98226C1.39559 10.2369 1.65181 12.0149 2.90647 12.9535L14.5954 21.6977C15.8501 22.6363 17.628 22.3801 18.5666 21.1255L22.9388 15.281C23.8773 14.0263 23.6211 12.2484 22.3665 11.3098L10.6775 2.56549ZM12.3548 12.5081L10.8663 5.23526L19.752 11.8825L12.3548 12.5081ZM16.7617 20.0911L15.9183 14.2387L21.4574 13.7703C21.4324 13.8749 21.3862 13.9763 21.3175 14.0681L16.9454 19.9126C16.8924 19.9834 16.8302 20.043 16.7617 20.0911ZM8.32758 4.35063C8.39624 4.25884 8.48047 4.1858 8.57384 4.13233L9.68846 9.57827L3.83605 10.4217C3.86285 10.3424 3.90248 10.2659 3.95544 10.1951L8.32758 4.35063ZM5.34581 12.2497L10.0951 11.5653L10.389 13.0012C10.5847 13.9571 11.4646 14.6154 12.4369 14.5331L13.8973 14.4096L14.5817 19.1589L5.34581 12.2497Z" fill="white"/>
<rect x="1" y="17.249" width="6" height="2" rx="1" fill="white"/>
<rect x="1" y="20.249" width="9" height="2" rx="1" fill="white"/>
</svg>
