<svg width="24" height="24" viewBox="0 0 24 24" fill="none" xmlns="http://www.w3.org/2000/svg">
<g opacity="0.8">
<path d="M8.04922 13.6721L8.04969 13.6721C10.3467 13.4426 13.3474 13.4426 15.6445 13.6721L15.645 13.6721C19.0055 14.0045 21.6281 17.3633 22 20.7096V21.0388C22 21.2935 21.7935 21.5 21.5388 21.5C21.2841 21.5 21.0777 21.2935 21.0777 21.0388V20.8778V20.8508L21.0748 20.824C20.9189 19.3847 20.3165 17.9013 19.3745 16.7342C18.4311 15.5655 17.1213 14.6853 15.5494 14.5294L15.5494 14.5294L15.5465 14.5291C14.4327 14.4252 13.1259 14.3687 12.0049 14.3687C10.8875 14.3687 9.27419 14.4249 8.15742 14.5291L8.15742 14.5291L8.15436 14.5294C6.57881 14.6863 5.3413 15.5748 4.47274 16.7513C3.60753 17.9233 3.08879 19.403 2.93494 20.824L2.93204 20.8508V20.8778V21.034C2.93204 21.2914 2.72339 21.5 2.46602 21.5C2.20864 21.5 2 21.2914 2 21.034V20.7095C2.37362 17.3327 4.71294 14.0021 8.04922 13.6721Z" fill="#40C4CC" stroke="#40C4CC"/>
<path d="M10.5465 11.1708C8.93179 10.9978 7.64939 9.65992 7.48439 8.00271C7.3841 7.00465 7.38411 5.99419 7.48441 4.99613C7.64948 3.3388 8.93211 2.00088 10.5471 1.82811C11.5117 1.72396 12.4884 1.72396 13.4531 1.82812C15.068 2.00096 16.3506 3.33897 16.5156 4.99637C16.6159 5.99432 16.6159 7.00466 16.5156 8.00261L10.5465 11.1708ZM10.5465 11.1708C11.0298 11.225 11.5163 11.25 12.002 11.25C12.4876 11.25 12.9741 11.2251 13.4536 11.1708C15.0682 10.9977 16.3505 9.65995 16.5156 8.00285L10.5465 11.1708ZM8.76705 5.13172C8.87429 4.06176 9.66645 3.24886 10.6826 3.13914C11.1205 3.09498 11.5616 3.07097 12.002 3.07097C12.4424 3.07097 12.8835 3.09499 13.3214 3.13915C14.3411 3.24885 15.1297 4.06147 15.2369 5.13183C15.326 6.03965 15.326 6.96369 15.2369 7.87149C15.1296 8.9453 14.3375 9.75446 13.3208 9.86398C12.4468 9.95616 11.5572 9.95617 10.6832 9.86399C9.66316 9.75456 8.87434 8.94188 8.76705 7.87135C8.67794 6.96355 8.67794 6.03952 8.76705 5.13172Z" fill="#40C4CC" stroke="#40C4CC" stroke-width="0.5"/>
</g>
</svg>
