<svg width="24" height="24" viewBox="0 0 24 24" fill="none" xmlns="http://www.w3.org/2000/svg">
<path fill-rule="evenodd" clip-rule="evenodd" d="M10.4308 2.92033C11.0727 1.61966 12.9274 1.61965 13.5694 2.92033L15.75 7.33881L20.6261 8.04735C22.0615 8.25592 22.6346 10.0199 21.596 11.0323L18.0676 14.4716L18.9005 19.328C19.1457 20.7576 17.6452 21.8478 16.3614 21.1728L12.0001 18.8799L7.63876 21.1728C6.35492 21.8478 4.85441 20.7576 5.0996 19.328L5.93254 14.4716L2.40417 11.0323C1.36552 10.0199 1.93866 8.25592 3.37404 8.04735L8.25013 7.33881L10.4308 2.92033ZM12.0001 4.25971L9.81093 8.69539C9.66527 8.99053 9.3837 9.1951 9.05799 9.24243L4.16293 9.95372L7.70503 13.4064C7.94071 13.6362 8.04826 13.9672 7.99263 14.2915L7.15645 19.1668L11.5347 16.865C11.826 16.7119 12.1741 16.7119 12.4654 16.865L16.8437 19.1668L16.0075 14.2915C15.9519 13.9672 16.0594 13.6362 16.2951 13.4064L19.8372 9.95372L14.9421 9.24243C14.6164 9.1951 14.3349 8.99053 14.1892 8.69539L12.0001 4.25971Z" fill="#4CC57C"/>
</svg>
