<svg width="24" height="24" viewBox="0 0 24 24" fill="none" xmlns="http://www.w3.org/2000/svg">
<path fill-rule="evenodd" clip-rule="evenodd" d="M8 4C7.44772 4 7 4.44772 7 5C7 5.55228 7.44772 6 8 6H18C18.5523 6 19 6.44772 19 7V17C19 17.5523 18.5523 18 18 18H17.75V17.506C17.75 16.5882 17.1807 15.7668 16.3214 15.4445C14.18 14.6415 11.82 14.6415 9.67856 15.4445C8.81927 15.7668 8.25 16.5882 8.25 17.506V18H8C7.44772 18 7 18.4477 7 19C7 19.5523 7.44772 20 8 20H18C19.6569 20 21 18.6569 21 17V7C21 5.34314 19.6569 4 18 4H8ZM9.75 18H16.25V17.506C16.25 17.2135 16.0686 16.9517 15.7948 16.849C13.9929 16.1733 12.0071 16.1733 10.2052 16.849C9.9314 16.9517 9.75 17.2135 9.75 17.506V18Z" fill="#4CC57C"/>
<path fill-rule="evenodd" clip-rule="evenodd" d="M13 7.75C11.2051 7.75 9.75 9.20508 9.75 11C9.75 12.7949 11.2051 14.25 13 14.25C14.7949 14.25 16.25 12.7949 16.25 11C16.25 9.20508 14.7949 7.75 13 7.75ZM11.25 11C11.25 10.0335 12.0335 9.25 13 9.25C13.9665 9.25 14.75 10.0335 14.75 11C14.75 11.9665 13.9665 12.75 13 12.75C12.0335 12.75 11.25 11.9665 11.25 11Z" fill="#4CC57C"/>
<path fill-rule="evenodd" clip-rule="evenodd" d="M2.25 6C2.25 5.58579 2.58579 5.25 3 5.25H5C5.41421 5.25 5.75 5.58579 5.75 6C5.75 6.41421 5.41421 6.75 5 6.75H3C2.58579 6.75 2.25 6.41421 2.25 6ZM2.25 10C2.25 9.58579 2.58579 9.25 3 9.25H5C5.41421 9.25 5.75 9.58579 5.75 10C5.75 10.4142 5.41421 10.75 5 10.75H3C2.58579 10.75 2.25 10.4142 2.25 10ZM2.25 14C2.25 13.5858 2.58579 13.25 3 13.25H5C5.41421 13.25 5.75 13.5858 5.75 14C5.75 14.4142 5.41421 14.75 5 14.75H3C2.58579 14.75 2.25 14.4142 2.25 14ZM2.25 18C2.25 17.5858 2.58579 17.25 3 17.25H5C5.41421 17.25 5.75 17.5858 5.75 18C5.75 18.4142 5.41421 18.75 5 18.75H3C2.58579 18.75 2.25 18.4142 2.25 18Z" fill="#4CC57C"/>
</svg>
