<svg width="24" height="24" viewBox="0 0 24 24" fill="none" xmlns="http://www.w3.org/2000/svg">
<g opacity="0.8">
<path d="M13.2186 14.7502C13.8337 14.4091 14.25 13.7532 14.25 13C14.25 11.8954 13.3546 11 12.25 11C11.1454 11 10.25 11.8954 10.25 13C10.25 13.7532 10.6663 14.4091 11.2814 14.7502C11.2609 14.8301 11.25 14.9138 11.25 15V18C11.25 18.5523 11.6977 19 12.25 19C12.8023 19 13.25 18.5523 13.25 18L13.25 15C13.25 14.9138 13.2391 14.8301 13.2186 14.7502Z" fill="#40C4CC"/>
<path fill-rule="evenodd" clip-rule="evenodd" d="M7.25 6C7.25 3.23859 9.48858 1 12.25 1C15.0114 1 17.25 3.23859 17.25 6V7.6319C18.9485 8.58398 20.1535 10.3225 20.3623 12.345C20.5459 14.1071 20.5459 15.8911 20.3623 17.6532C20.0665 20.5188 17.7707 22.8145 14.9049 23.1105C14.03 23.206 13.1414 23.25 12.2536 23.25C11.3659 23.25 10.4774 23.206 9.59548 23.1105C6.72948 22.8146 4.43343 20.5189 4.13766 17.6531C3.95411 15.8911 3.95411 14.1071 4.13768 12.345C4.34645 10.3225 5.55148 8.58392 7.25 7.6319V6ZM15.25 6L15.25 6.93335C15.1358 6.91486 15.0206 6.8996 14.9044 6.88763C13.1422 6.7041 11.358 6.7041 9.59573 6.88763C9.47952 6.8996 9.36424 6.91492 9.25 6.93341V6C9.25 4.34314 10.5931 3 12.25 3C13.9069 3 15.25 4.34314 15.25 6ZM15.25 9V8.92285C15.0739 8.88159 14.893 8.85101 14.7081 8.83185C13.8941 8.75262 13.0735 8.70947 12.2536 8.70947C11.4337 8.70947 10.6132 8.75262 9.79923 8.83185C9.61185 8.85132 9.42853 8.88263 9.25 8.92499V9H8.97518C7.4042 9.48651 6.25835 10.851 6.08196 12.5491C5.91648 14.1752 5.91648 15.8302 6.08196 17.4563C6.288 19.4399 7.8094 20.9678 9.79992 21.1737C11.4261 21.3391 13.0813 21.3391 14.7075 21.1736C16.6914 20.9677 18.2194 19.4464 18.4253 17.4562C18.5908 15.8301 18.5908 14.1752 18.4253 12.5491C18.2489 10.8507 17.1082 9.48645 15.5344 9H15.25Z" fill="#40C4CC"/>
</g>
</svg>
